module github.com/hashicorp/consul-k8s/acceptance

go 1.20

replace github.com/hashicorp/consul/sdk => github.com/hashicorp/consul/sdk v0.4.1-0.20231213150639-123bc95e1a3f

replace github.com/hashicorp/consul/proto-public => github.com/hashicorp/consul/proto-public v0.1.2-0.20240129174413-a2d50af1bdfb

require (
	github.com/google/uuid v1.3.0
	github.com/gruntwork-io/terratest v0.31.2
	github.com/hashicorp/consul-k8s/control-plane v0.0.0-20240201210635-25708a18e4aa
	github.com/hashicorp/consul/api v1.10.1-0.20240122152324-758ddf84e9c9
	github.com/hashicorp/consul/proto-public v0.5.1
	github.com/hashicorp/consul/sdk v0.15.0
	github.com/hashicorp/go-multierror v1.1.1
	github.com/hashicorp/go-uuid v1.0.3
	github.com/hashicorp/go-version v1.6.0
	github.com/hashicorp/hcp-sdk-go v0.50.0
	github.com/hashicorp/serf v0.10.1
	github.com/hashicorp/vault/api v1.8.3
	github.com/stretchr/testify v1.8.4
	go.opentelemetry.io/proto/otlp v1.0.0
	google.golang.org/grpc v1.58.3
	google.golang.org/protobuf v1.31.0
	gopkg.in/yaml.v2 v2.4.0
	k8s.io/api v0.26.12
	k8s.io/apimachinery v0.26.12
	k8s.io/client-go v0.26.12
	k8s.io/utils v0.0.0-20230406110748-d93618cff8a2
	sigs.k8s.io/controller-runtime v0.14.7
	sigs.k8s.io/gateway-api v0.7.1
)

require (
	github.com/armon/go-metrics v0.4.1 // indirect
	github.com/armon/go-radix v1.0.0 // indirect
	github.com/asaskevich/govalidator v0.0.0-20210307081110-f21760c49a8d // indirect
	github.com/aws/aws-sdk-go v1.44.262 // indirect
	github.com/beorn7/perks v1.0.1 // indirect
	github.com/boombuler/barcode v1.0.1-0.20190219062509-6c824513bacc // indirect
	github.com/cenkalti/backoff/v3 v3.0.0 // indirect
	github.com/cenkalti/backoff/v4 v4.2.1 // indirect
	github.com/cespare/xxhash/v2 v2.2.0 // indirect
	github.com/cpuguy83/go-md2man/v2 v2.0.2 // indirect
	github.com/davecgh/go-spew v1.1.2-0.20180830191138-d8f796af33cc // indirect
	github.com/deckarep/golang-set v1.7.1 // indirect
	github.com/emicklei/go-restful/v3 v3.10.1 // indirect
	github.com/evanphx/json-patch v5.6.0+incompatible // indirect
	github.com/evanphx/json-patch/v5 v5.6.0 // indirect
	github.com/fatih/color v1.15.0 // indirect
	github.com/ghodss/yaml v1.0.0 // indirect
	github.com/go-errors/errors v1.4.2 // indirect
	github.com/go-logr/logr v1.2.4 // indirect
	github.com/go-logr/stdr v1.2.2 // indirect
	github.com/go-openapi/analysis v0.21.4 // indirect
	github.com/go-openapi/errors v0.20.3 // indirect
	github.com/go-openapi/jsonpointer v0.19.6 // indirect
	github.com/go-openapi/jsonreference v0.20.1 // indirect
	github.com/go-openapi/loads v0.21.2 // indirect
	github.com/go-openapi/runtime v0.25.0 // indirect
	github.com/go-openapi/spec v0.20.8 // indirect
	github.com/go-openapi/strfmt v0.21.3 // indirect
	github.com/go-openapi/swag v0.22.3 // indirect
	github.com/go-openapi/validate v0.22.1 // indirect
	github.com/go-ozzo/ozzo-validation v3.6.0+incompatible // indirect
	github.com/go-sql-driver/mysql v1.5.0 // indirect
	github.com/gogo/protobuf v1.3.2 // indirect
	github.com/golang/protobuf v1.5.3 // indirect
	github.com/golang/snappy v0.0.4 // indirect
	github.com/google/gnostic v0.5.7-v3refs // indirect
	github.com/google/go-cmp v0.5.9 // indirect
	github.com/google/gofuzz v1.2.0 // indirect
	github.com/grpc-ecosystem/grpc-gateway/v2 v2.16.0 // indirect
	github.com/gruntwork-io/gruntwork-cli v0.7.0 // indirect
	github.com/hashicorp/errwrap v1.1.0 // indirect
	github.com/hashicorp/go-bexpr v0.1.11 // indirect
	github.com/hashicorp/go-cleanhttp v0.5.2 // indirect
	github.com/hashicorp/go-hclog v1.5.0 // indirect
	github.com/hashicorp/go-immutable-radix v1.3.1 // indirect
	github.com/hashicorp/go-plugin v1.4.5 // indirect
	github.com/hashicorp/go-retryablehttp v0.6.6 // indirect
	github.com/hashicorp/go-rootcerts v1.0.2 // indirect
	github.com/hashicorp/go-secure-stdlib/mlock v0.1.1 // indirect
	github.com/hashicorp/go-secure-stdlib/parseutil v0.1.6 // indirect
	github.com/hashicorp/go-secure-stdlib/strutil v0.1.2 // indirect
	github.com/hashicorp/go-sockaddr v1.0.2 // indirect
	github.com/hashicorp/golang-lru v0.5.4 // indirect
	github.com/hashicorp/hcl v1.0.0 // indirect
	github.com/hashicorp/vault/sdk v0.7.0 // indirect
	github.com/hashicorp/yamux v0.0.0-20180604194846-3520598351bb // indirect
	github.com/imdario/mergo v0.3.13 // indirect
	github.com/jmespath/go-jmespath v0.4.0 // indirect
	github.com/josharian/intern v1.0.0 // indirect
	github.com/json-iterator/go v1.1.12 // indirect
	github.com/mailru/easyjson v0.7.7 // indirect
	github.com/mattn/go-colorable v0.1.13 // indirect
	github.com/mattn/go-isatty v0.0.19 // indirect
	github.com/matttproud/golang_protobuf_extensions v1.0.4 // indirect
	github.com/miekg/dns v1.1.50 // indirect
	github.com/mitchellh/colorstring v0.0.0-20190213212951-d06e56a500db // indirect
	github.com/mitchellh/copystructure v1.2.0 // indirect
	github.com/mitchellh/go-homedir v1.1.0 // indirect
	github.com/mitchellh/go-testing-interface v1.14.0 // indirect
	github.com/mitchellh/mapstructure v1.5.0 // indirect
	github.com/mitchellh/pointerstructure v1.2.1 // indirect
	github.com/mitchellh/reflectwalk v1.0.2 // indirect
	github.com/moby/spdystream v0.2.0 // indirect
	github.com/modern-go/concurrent v0.0.0-20180306012644-bacd9c7ef1dd // indirect
	github.com/modern-go/reflect2 v1.0.2 // indirect
	github.com/munnerz/goautoneg v0.0.0-20191010083416-a7dc8b61c822 // indirect
	github.com/oklog/run v1.0.0 // indirect
	github.com/oklog/ulid v1.3.1 // indirect
	github.com/opentracing/opentracing-go v1.2.0 // indirect
	github.com/pierrec/lz4 v2.5.2+incompatible // indirect
	github.com/pkg/errors v0.9.1 // indirect
	github.com/pmezard/go-difflib v1.0.1-0.20181226105442-5d4384ee4fb2 // indirect
	github.com/pquerna/otp v1.2.0 // indirect
	github.com/prometheus/client_golang v1.14.0 // indirect
	github.com/prometheus/client_model v0.3.0 // indirect
	github.com/prometheus/common v0.37.0 // indirect
	github.com/prometheus/procfs v0.8.0 // indirect
	github.com/russross/blackfriday/v2 v2.1.0 // indirect
	github.com/ryanuber/go-glob v1.0.0 // indirect
	github.com/skratchdot/open-golang v0.0.0-20200116055534-eef842397966 // indirect
	github.com/spf13/pflag v1.0.5 // indirect
	github.com/urfave/cli v1.22.12 // indirect
	go.mongodb.org/mongo-driver v1.11.0 // indirect
	go.opentelemetry.io/otel v1.19.0 // indirect
	go.opentelemetry.io/otel/metric v1.19.0 // indirect
	go.opentelemetry.io/otel/sdk v1.19.0 // indirect
	go.opentelemetry.io/otel/trace v1.19.0 // indirect
	go.uber.org/atomic v1.9.0 // indirect
	golang.org/x/crypto v0.18.0 // indirect
	golang.org/x/exp v0.0.0-20230817173708-d852ddb80c63 // indirect
	golang.org/x/mod v0.12.0 // indirect
	golang.org/x/net v0.17.0 // indirect
	golang.org/x/oauth2 v0.10.0 // indirect
	golang.org/x/sync v0.6.0 // indirect
	golang.org/x/sys v0.16.0 // indirect
	golang.org/x/term v0.16.0 // indirect
	golang.org/x/text v0.14.0 // indirect
	golang.org/x/time v0.3.0 // indirect
	golang.org/x/tools v0.12.1-0.20230815132531-74c255bcf846 // indirect
	gomodules.xyz/jsonpatch/v2 v2.3.0 // indirect
	google.golang.org/appengine v1.6.7 // indirect
	google.golang.org/genproto/googleapis/api v0.0.0-20230711160842-782d3b101e98 // indirect
	google.golang.org/genproto/googleapis/rpc v0.0.0-20230711160842-782d3b101e98 // indirect
	gopkg.in/inf.v0 v0.9.1 // indirect
	gopkg.in/square/go-jose.v2 v2.5.1 // indirect
	gopkg.in/yaml.v3 v3.0.1 // indirect
	k8s.io/klog/v2 v2.100.1 // indirect
	k8s.io/kube-openapi v0.0.0-20230501164219-8b0f38b5fd1f // indirect
	sigs.k8s.io/json v0.0.0-20221116044647-bc3834ca7abd // indirect
	sigs.k8s.io/structured-merge-diff/v4 v4.2.3 // indirect
	sigs.k8s.io/yaml v1.3.0 // indirect
)
