module github.com/hashicorp/consul-k8s/hack/helm-reference-gen

go 1.20

require (
	github.com/stretchr/testify v1.8.4
	gopkg.in/yaml.v3 v3.0.1
)

require (
	github.com/davecgh/go-spew v1.1.1 // indirect
	github.com/kr/text v0.2.0 // indirect
	github.com/niemeyer/pretty v0.0.0-20200227124842-a10e7caefd8e // indirect
	github.com/pmezard/go-difflib v1.0.0 // indirect
	gopkg.in/check.v1 v1.0.0-20200227125254-8fa46927fb4f // indirect
)
