module github.com/hashicorp/consul-k8s/cli

go 1.20

require (
	github.com/bgentry/speakeasy v0.1.0
	github.com/cenkalti/backoff v2.2.1+incompatible
	github.com/fatih/color v1.14.1
	github.com/google/go-cmp v0.5.9
	github.com/hashicorp/consul-k8s/charts v0.0.0-00010101000000-000000000000
	github.com/hashicorp/consul/troubleshoot v0.3.0-rc1
	github.com/hashicorp/go-hclog v1.5.0
	github.com/hashicorp/hcp-sdk-go v0.62.1-0.20230913154003-cf69c0370c54
	github.com/kr/text v0.2.0
	github.com/mattn/go-isatty v0.0.17
	github.com/mitchellh/cli v1.1.5
	github.com/olekukonko/tablewriter v0.0.5
	github.com/posener/complete v1.2.3
	github.com/stretchr/testify v1.8.4
	golang.org/x/text v0.14.0
	helm.sh/helm/v3 v3.11.3
	k8s.io/api v0.26.12
	k8s.io/apiextensions-apiserver v0.26.10
	k8s.io/apimachinery v0.26.12
	k8s.io/cli-runtime v0.26.10
	k8s.io/client-go v0.26.12
	k8s.io/utils v0.0.0-20230220204549-a5ecb0141aa5
	sigs.k8s.io/yaml v1.3.0
)

require (
	github.com/AdaLogics/go-fuzz-headers v0.0.0-20230811130428-ced1acdcaa24 // indirect
	github.com/Azure/go-ansiterm v0.0.0-20210617225240-d185dfc1b5a1 // indirect
	github.com/BurntSushi/toml v1.2.1 // indirect
	github.com/MakeNowJust/heredoc v1.0.0 // indirect
	github.com/Masterminds/goutils v1.1.1 // indirect
	github.com/Masterminds/semver/v3 v3.2.0 // indirect
	github.com/Masterminds/sprig/v3 v3.2.3 // indirect
	github.com/Masterminds/squirrel v1.5.3 // indirect
	github.com/Microsoft/hcsshim v0.11.4 // indirect
	github.com/armon/go-metrics v0.4.1 // indirect
	github.com/armon/go-radix v1.0.0 // indirect
	github.com/asaskevich/govalidator v0.0.0-20210307081110-f21760c49a8d // indirect
	github.com/beorn7/perks v1.0.1 // indirect
	github.com/census-instrumentation/opencensus-proto v0.4.1 // indirect
	github.com/cespare/xxhash/v2 v2.2.0 // indirect
	github.com/chai2010/gettext-go v1.0.2 // indirect
	github.com/cncf/xds/go v0.0.0-20230607035331-e9ce68804cb4 // indirect
	github.com/containerd/containerd v1.7.13 // indirect
	github.com/containerd/log v0.1.0 // indirect
	github.com/cyphar/filepath-securejoin v0.2.4 // indirect
	github.com/davecgh/go-spew v1.1.2-0.20180830191138-d8f796af33cc // indirect
	github.com/distribution/reference v0.5.0 // indirect
	github.com/docker/cli v25.0.1+incompatible // indirect
	github.com/docker/distribution v2.8.3+incompatible // indirect
	github.com/docker/docker v25.0.3+incompatible // indirect
	github.com/docker/docker-credential-helpers v0.7.0 // indirect
	github.com/docker/go-connections v0.5.0 // indirect
	github.com/docker/go-metrics v0.0.1 // indirect
	github.com/emicklei/go-restful/v3 v3.10.1 // indirect
	github.com/envoyproxy/go-control-plane v0.11.1 // indirect
	github.com/envoyproxy/go-control-plane/xdsmatcher v0.0.0-20230524161521-aaaacbfbe53e // indirect
	github.com/envoyproxy/protoc-gen-validate v1.0.2 // indirect
	github.com/evanphx/json-patch v5.6.0+incompatible // indirect
	github.com/exponent-io/jsonpath v0.0.0-20151013193312-d6023ce2651d // indirect
	github.com/felixge/httpsnoop v1.0.3 // indirect
	github.com/go-errors/errors v1.0.1 // indirect
	github.com/go-gorp/gorp/v3 v3.1.0 // indirect
	github.com/go-logr/logr v1.2.4 // indirect
	github.com/go-logr/stdr v1.2.2 // indirect
	github.com/go-openapi/analysis v0.21.4 // indirect
	github.com/go-openapi/errors v0.20.3 // indirect
	github.com/go-openapi/jsonpointer v0.19.5 // indirect
	github.com/go-openapi/jsonreference v0.20.0 // indirect
	github.com/go-openapi/loads v0.21.2 // indirect
	github.com/go-openapi/runtime v0.25.0 // indirect
	github.com/go-openapi/spec v0.20.8 // indirect
	github.com/go-openapi/strfmt v0.21.3 // indirect
	github.com/go-openapi/swag v0.22.3 // indirect
	github.com/go-openapi/validate v0.22.1 // indirect
	github.com/go-ozzo/ozzo-validation v3.6.0+incompatible // indirect
	github.com/gobwas/glob v0.2.3 // indirect
	github.com/gogo/protobuf v1.3.2 // indirect
	github.com/golang/protobuf v1.5.3 // indirect
	github.com/google/btree v1.0.1 // indirect
	github.com/google/gnostic v0.5.7-v3refs // indirect
	github.com/google/gofuzz v1.2.0 // indirect
	github.com/google/shlex v0.0.0-20191202100458-e7afc7fbc510 // indirect
	github.com/google/uuid v1.3.0 // indirect
	github.com/gorilla/mux v1.8.0 // indirect
	github.com/gosuri/uitable v0.0.4 // indirect
	github.com/gregjones/httpcache v0.0.0-20180305231024-9cad4c3443a7 // indirect
	github.com/hashicorp/consul/api v1.22.0-rc1 // indirect
	github.com/hashicorp/consul/envoyextensions v0.3.0-rc1 // indirect
	github.com/hashicorp/errwrap v1.1.0 // indirect
	github.com/hashicorp/go-cleanhttp v0.5.2 // indirect
	github.com/hashicorp/go-immutable-radix v1.3.1 // indirect
	github.com/hashicorp/go-multierror v1.1.1 // indirect
	github.com/hashicorp/go-rootcerts v1.0.2 // indirect
	github.com/hashicorp/go-version v1.2.1 // indirect
	github.com/hashicorp/golang-lru v0.5.4 // indirect
	github.com/hashicorp/serf v0.10.1 // indirect
	github.com/huandu/xstrings v1.4.0 // indirect
	github.com/imdario/mergo v0.3.13 // indirect
	github.com/inconshreveable/mousetrap v1.1.0 // indirect
	github.com/jmoiron/sqlx v1.3.5 // indirect
	github.com/josharian/intern v1.0.0 // indirect
	github.com/json-iterator/go v1.1.12 // indirect
	github.com/klauspost/compress v1.16.0 // indirect
	github.com/lann/builder v0.0.0-20180802200727-47ae307949d0 // indirect
	github.com/lann/ps v0.0.0-20150810152359-62de8c46ede0 // indirect
	github.com/lib/pq v1.10.7 // indirect
	github.com/liggitt/tabwriter v0.0.0-20181228230101-89fcab3d43de // indirect
	github.com/mailru/easyjson v0.7.7 // indirect
	github.com/mattn/go-colorable v0.1.13 // indirect
	github.com/mattn/go-runewidth v0.0.9 // indirect
	github.com/matttproud/golang_protobuf_extensions v1.0.4 // indirect
	github.com/mitchellh/colorstring v0.0.0-20190213212951-d06e56a500db // indirect
	github.com/mitchellh/copystructure v1.2.0 // indirect
	github.com/mitchellh/go-homedir v1.1.0 // indirect
	github.com/mitchellh/go-wordwrap v1.0.1 // indirect
	github.com/mitchellh/mapstructure v1.5.0 // indirect
	github.com/mitchellh/reflectwalk v1.0.2 // indirect
	github.com/moby/locker v1.0.1 // indirect
	github.com/moby/spdystream v0.2.0 // indirect
	github.com/moby/term v0.0.0-20221205130635-1aeaba878587 // indirect
	github.com/modern-go/concurrent v0.0.0-20180306012644-bacd9c7ef1dd // indirect
	github.com/modern-go/reflect2 v1.0.2 // indirect
	github.com/monochromegane/go-gitignore v0.0.0-20200626010858-205db1a8cc00 // indirect
	github.com/munnerz/goautoneg v0.0.0-20191010083416-a7dc8b61c822 // indirect
	github.com/oklog/ulid v1.3.1 // indirect
	github.com/onsi/ginkgo/v2 v2.6.0 // indirect
	github.com/onsi/gomega v1.24.1 // indirect
	github.com/opencontainers/go-digest v1.0.0 // indirect
	github.com/opencontainers/image-spec v1.1.0-rc6 // indirect
	github.com/opentracing/opentracing-go v1.2.0 // indirect
	github.com/peterbourgon/diskv v2.0.1+incompatible // indirect
	github.com/pkg/errors v0.9.1 // indirect
	github.com/pmezard/go-difflib v1.0.1-0.20181226105442-5d4384ee4fb2 // indirect
	github.com/prometheus/client_golang v1.14.0 // indirect
	github.com/prometheus/client_model v0.4.0 // indirect
	github.com/prometheus/common v0.37.0 // indirect
	github.com/prometheus/procfs v0.8.0 // indirect
	github.com/rubenv/sql-migrate v1.3.1 // indirect
	github.com/russross/blackfriday/v2 v2.1.0 // indirect
	github.com/shopspring/decimal v1.3.1 // indirect
	github.com/sirupsen/logrus v1.9.3 // indirect
	github.com/skratchdot/open-golang v0.0.0-20200116055534-eef842397966 // indirect
	github.com/spf13/cast v1.5.0 // indirect
	github.com/spf13/cobra v1.8.0 // indirect
	github.com/spf13/pflag v1.0.5 // indirect
	github.com/xeipuuv/gojsonpointer v0.0.0-20190905194746-02993c407bfb // indirect
	github.com/xeipuuv/gojsonreference v0.0.0-20180127040603-bd5ef7bd5415 // indirect
	github.com/xeipuuv/gojsonschema v1.2.0 // indirect
	github.com/xlab/treeprint v1.1.0 // indirect
	go.mongodb.org/mongo-driver v1.11.1 // indirect
	go.opentelemetry.io/contrib/instrumentation/net/http/otelhttp v0.45.0 // indirect
	go.opentelemetry.io/otel v1.19.0 // indirect
	go.opentelemetry.io/otel/metric v1.19.0 // indirect
	go.opentelemetry.io/otel/trace v1.19.0 // indirect
	go.opentelemetry.io/proto/otlp v1.0.0 // indirect
	go.starlark.net v0.0.0-20230128213706-3f75dec8e403 // indirect
	golang.org/x/crypto v0.18.0 // indirect
	golang.org/x/exp v0.0.0-20230321023759-10a507213a29 // indirect
	golang.org/x/net v0.17.0 // indirect
	golang.org/x/oauth2 v0.10.0 // indirect
	golang.org/x/sync v0.6.0 // indirect
	golang.org/x/sys v0.16.0 // indirect
	golang.org/x/term v0.16.0 // indirect
	golang.org/x/time v0.3.0 // indirect
	google.golang.org/appengine v1.6.7 // indirect
	google.golang.org/genproto v0.0.0-20230711160842-782d3b101e98 // indirect
	google.golang.org/genproto/googleapis/api v0.0.0-20230711160842-782d3b101e98 // indirect
	google.golang.org/genproto/googleapis/rpc v0.0.0-20230711160842-782d3b101e98 // indirect
	google.golang.org/grpc v1.58.3 // indirect
	google.golang.org/protobuf v1.31.0 // indirect
	gopkg.in/inf.v0 v0.9.1 // indirect
	gopkg.in/yaml.v2 v2.4.0 // indirect
	gopkg.in/yaml.v3 v3.0.1 // indirect
	k8s.io/apiserver v0.26.10 // indirect
	k8s.io/component-base v0.26.10 // indirect
	k8s.io/klog/v2 v2.90.1 // indirect
	k8s.io/kube-openapi v0.0.0-20221012153701-172d655c2280 // indirect
	k8s.io/kubectl v0.26.10 // indirect
	oras.land/oras-go v1.2.5 // indirect
	sigs.k8s.io/json v0.0.0-20220713155537-f223a00ba0e2 // indirect
	sigs.k8s.io/kustomize/api v0.12.1 // indirect
	sigs.k8s.io/kustomize/kyaml v0.13.9 // indirect
	sigs.k8s.io/structured-merge-diff/v4 v4.2.3 // indirect
)

// This replace directive is to avoid having to manually bump the version of the charts module upon changes to the Helm
// chart. When the CLI compiles, all changes to the local charts directory are picked up automatically. This directive
// works because of the monorepo setup, where the charts module and CLI module are in the same repository. Otherwise,
// this won't work.
replace github.com/hashicorp/consul-k8s/charts => ../charts
